de\varoxcraft\dropevent\listener\InventoryCloseListener.class
de\varoxcraft\dropevent\Cooldown.class
de\varoxcraft\dropevent\listener\DropEventArmorStandProtectionListener.class
de\varoxcraft\dropevent\commands\DropEventCommand.class
de\varoxcraft\dropevent\EventObject.class
de\varoxcraft\dropevent\DropEvent.class
de\varoxcraft\dropevent\FlyingItem.class
